{
	"name": "pages-authorization",
	"$schema": "../../../node_modules/nx/schemas/project-schema.json",
	"sourceRoot": "libs/pages/authorization/src",
	"prefix": "la",
	"tags": [],
	"projectType": "library",
	"targets": {
		"test": {
			"executor": "@nx/jest:jest",
			"outputs": ["{workspaceRoot}/coverage/{projectRoot}"],
			"options": {
				"jestConfig": "libs/pages/authorization/jest.config.ts",
				"passWithNoTests": true
			},
			"configurations": {
				"ci": {
					"ci": true,
					"codeCoverage": true
				}
			}
		},
		"lint": {
			"executor": "@nx/linter:eslint",
			"outputs": ["{options.outputFile}"],
			"options": {
				"lintFilePatterns": [
					"libs/pages/authorization/**/*.ts",
					"libs/pages/authorization/**/*.html"
				]
			}
		}
	}
}
