{
	"v": "5.6.5",
	"fr": 24,
	"ip": 0,
	"op": 28,
	"w": 64,
	"h": 64,
	"nm": "paint-roller",
	"ddd": 0,
	"assets": [],
	"layers": [
		{
			"ddd": 0,
			"ind": 1,
			"ty": 4,
			"nm": "roller Outlines",
			"sr": 1,
			"ks": {
				"o": { "a": 0, "k": 100, "ix": 11 },
				"r": { "a": 0, "k": 0, "ix": 10 },
				"p": {
					"a": 1,
					"k": [
						{
							"i": { "x": 0.667, "y": 1 },
							"o": { "x": 0.333, "y": 0 },
							"t": 3,
							"s": [32.875, 35.375, 0],
							"to": [0, -0.646, 0],
							"ti": [0, -0.167, 0]
						},
						{
							"i": { "x": 0.667, "y": 1 },
							"o": { "x": 0.333, "y": 0 },
							"t": 7,
							"s": [32.875, 31.5, 0],
							"to": [0, 0.167, 0],
							"ti": [0, 0, 0]
						},
						{
							"i": { "x": 0.667, "y": 1 },
							"o": { "x": 0.333, "y": 0 },
							"t": 14,
							"s": [32.875, 36.375, 0],
							"to": [0, 0, 0],
							"ti": [0, 0.167, 0]
						},
						{
							"i": { "x": 0.667, "y": 1 },
							"o": { "x": 0.333, "y": 0 },
							"t": 21,
							"s": [32.875, 31.5, 0],
							"to": [0, -0.167, 0],
							"ti": [0, -0.646, 0]
						},
						{ "t": 25, "s": [32.875, 35.375, 0] }
					],
					"ix": 2
				},
				"a": { "a": 0, "k": [30.125, 30.625, 0], "ix": 1 },
				"s": { "a": 0, "k": [100, 100, 100], "ix": 6 }
			},
			"ao": 0,
			"shapes": [
				{
					"ty": "gr",
					"it": [
						{
							"ind": 0,
							"ty": "sh",
							"ix": 1,
							"ks": {
								"a": 1,
								"k": [
									{
										"i": { "x": 0.667, "y": 1 },
										"o": { "x": 0.333, "y": 0 },
										"t": 7,
										"s": [
											{
												"i": [
													[0.553, 0],
													[0, 0],
													[0, 0.552],
													[0, 0],
													[-0.552, 0],
													[0, 0],
													[0, -0.553],
													[0, 0]
												],
												"o": [
													[0, 0],
													[-0.552, 0],
													[0, 0],
													[0, -0.553],
													[0, 0],
													[0.553, 0],
													[0, 0],
													[0, 0.552]
												],
												"v": [
													[4, 10.5],
													[-4, 10.5],
													[-5, 9.5],
													[-5, -9.5],
													[-4, -10.5],
													[4, -10.5],
													[5, -9.5],
													[5, 9.5]
												],
												"c": true
											}
										]
									},
									{
										"i": { "x": 0.667, "y": 1 },
										"o": { "x": 0.333, "y": 0 },
										"t": 14,
										"s": [
											{
												"i": [
													[0.553, 0],
													[0, 0],
													[0, 0.552],
													[0, 0],
													[-0.552, 0],
													[0, 0],
													[0, -0.553],
													[0, 0]
												],
												"o": [
													[0, 0],
													[-0.552, 0],
													[0, 0],
													[0, -0.553],
													[0, 0],
													[0.553, 0],
													[0, 0],
													[0, 0.552]
												],
												"v": [
													[4, 10.5],
													[-4, 10.5],
													[-5, 9.5],
													[-4.999, -5.359],
													[-3.999, -6.359],
													[4.001, -6.359],
													[5.001, -5.359],
													[5, 9.5]
												],
												"c": true
											}
										]
									},
									{
										"t": 21,
										"s": [
											{
												"i": [
													[0.553, 0],
													[0, 0],
													[0, 0.552],
													[0, 0],
													[-0.552, 0],
													[0, 0],
													[0, -0.553],
													[0, 0]
												],
												"o": [
													[0, 0],
													[-0.552, 0],
													[0, 0],
													[0, -0.553],
													[0, 0],
													[0.553, 0],
													[0, 0],
													[0, 0.552]
												],
												"v": [
													[4, 10.5],
													[-4, 10.5],
													[-5, 9.5],
													[-5, -9.5],
													[-4, -10.5],
													[4, -10.5],
													[5, -9.5],
													[5, 9.5]
												],
												"c": true
											}
										]
									}
								],
								"ix": 2
							},
							"nm": "Path 1",
							"mn": "ADBE Vector Shape - Group",
							"hd": false
						},
						{
							"ty": "st",
							"c": {
								"a": 0,
								"k": [0.552999997606, 0.423999980852, 0.62400004069, 1],
								"ix": 3
							},
							"o": { "a": 0, "k": 100, "ix": 4 },
							"w": { "a": 0, "k": 2, "ix": 5 },
							"lc": 1,
							"lj": 2,
							"bm": 0,
							"nm": "Stroke 1",
							"mn": "ADBE Vector Graphic - Stroke",
							"hd": false
						},
						{
							"ty": "tr",
							"p": { "a": 0, "k": [27.25, 45.75], "ix": 2 },
							"a": { "a": 0, "k": [0, 0], "ix": 1 },
							"s": { "a": 0, "k": [100, 100], "ix": 3 },
							"r": { "a": 0, "k": 0, "ix": 6 },
							"o": { "a": 0, "k": 100, "ix": 7 },
							"sk": { "a": 0, "k": 0, "ix": 4 },
							"sa": { "a": 0, "k": 0, "ix": 5 },
							"nm": "Transform"
						}
					],
					"nm": "Group 1",
					"np": 2,
					"cix": 2,
					"bm": 0,
					"ix": 1,
					"mn": "ADBE Vector Group",
					"hd": false
				},
				{
					"ty": "gr",
					"it": [
						{
							"ind": 0,
							"ty": "sh",
							"ix": 1,
							"ks": {
								"a": 1,
								"k": [
									{
										"i": { "x": 0.667, "y": 1 },
										"o": { "x": 0.333, "y": 0 },
										"t": 7,
										"s": [
											{
												"i": [
													[0, 0],
													[0, 0],
													[0, 0],
													[0, 0]
												],
												"o": [
													[0, 0],
													[0, 0],
													[0, 0],
													[0, 0]
												],
												"v": [
													[-2, -9.5],
													[2, -9.5],
													[2, 9.5],
													[-2, 9.5]
												],
												"c": true
											}
										]
									},
									{
										"i": { "x": 0.667, "y": 1 },
										"o": { "x": 0.333, "y": 0 },
										"t": 14,
										"s": [
											{
												"i": [
													[0, 0],
													[0, 0],
													[0, 0],
													[0, 0]
												],
												"o": [
													[0, 0],
													[0, 0],
													[0, 0],
													[0, 0]
												],
												"v": [
													[-1.999, -5.359],
													[2.001, -5.359],
													[2, 9.5],
													[-2, 9.5]
												],
												"c": true
											}
										]
									},
									{
										"t": 21,
										"s": [
											{
												"i": [
													[0, 0],
													[0, 0],
													[0, 0],
													[0, 0]
												],
												"o": [
													[0, 0],
													[0, 0],
													[0, 0],
													[0, 0]
												],
												"v": [
													[-2, -9.5],
													[2, -9.5],
													[2, 9.5],
													[-2, 9.5]
												],
												"c": true
											}
										]
									}
								],
								"ix": 2
							},
							"nm": "Path 1",
							"mn": "ADBE Vector Shape - Group",
							"hd": false
						},
						{
							"ty": "fl",
							"c": {
								"a": 0,
								"k": [0.976000019148, 0.866999966491, 0.560999971278, 1],
								"ix": 4
							},
							"o": { "a": 0, "k": 100, "ix": 5 },
							"r": 1,
							"bm": 0,
							"nm": "Fill 1",
							"mn": "ADBE Vector Graphic - Fill",
							"hd": false
						},
						{
							"ty": "tr",
							"p": { "a": 0, "k": [25.25, 45.75], "ix": 2 },
							"a": { "a": 0, "k": [0, 0], "ix": 1 },
							"s": { "a": 0, "k": [100, 100], "ix": 3 },
							"r": { "a": 0, "k": 0, "ix": 6 },
							"o": { "a": 0, "k": 100, "ix": 7 },
							"sk": { "a": 0, "k": 0, "ix": 4 },
							"sa": { "a": 0, "k": 0, "ix": 5 },
							"nm": "Transform"
						}
					],
					"nm": "Group 2",
					"np": 2,
					"cix": 2,
					"bm": 0,
					"ix": 2,
					"mn": "ADBE Vector Group",
					"hd": false
				},
				{
					"ty": "gr",
					"it": [
						{
							"ind": 0,
							"ty": "sh",
							"ix": 1,
							"ks": {
								"a": 1,
								"k": [
									{
										"i": { "x": 0.667, "y": 1 },
										"o": { "x": 0.333, "y": 0 },
										"t": 7,
										"s": [
											{
												"i": [
													[0, 0],
													[0.69, 0],
													[0, 0],
													[0, 0.674],
													[0, 0],
													[-0.69, 0],
													[0, 0],
													[0, -0.673]
												],
												"o": [
													[0, 0.674],
													[0, 0],
													[-0.69, 0],
													[0, 0],
													[0, -0.673],
													[0, 0],
													[0.69, 0],
													[0, 0]
												],
												"v": [
													[5, 9.278],
													[3.75, 10.5],
													[-3.75, 10.5],
													[-5, 9.278],
													[-5, -9.279],
													[-3.75, -10.5],
													[3.75, -10.5],
													[5, -9.279]
												],
												"c": true
											}
										]
									},
									{
										"i": { "x": 0.667, "y": 1 },
										"o": { "x": 0.333, "y": 0 },
										"t": 14,
										"s": [
											{
												"i": [
													[0, 0],
													[0.69, 0],
													[0, 0],
													[0, 0.674],
													[0, 0],
													[-0.69, 0],
													[0, 0],
													[0, -0.673]
												],
												"o": [
													[0, 0.674],
													[0, 0],
													[-0.69, 0],
													[0, 0],
													[0, -0.673],
													[0, 0],
													[0.69, 0],
													[0, 0]
												],
												"v": [
													[5, 9.278],
													[3.75, 10.5],
													[-3.75, 10.5],
													[-5, 9.278],
													[-4.999, -5.138],
													[-3.749, -6.359],
													[3.751, -6.359],
													[5.001, -5.138]
												],
												"c": true
											}
										]
									},
									{
										"t": 21,
										"s": [
											{
												"i": [
													[0, 0],
													[0.69, 0],
													[0, 0],
													[0, 0.674],
													[0, 0],
													[-0.69, 0],
													[0, 0],
													[0, -0.673]
												],
												"o": [
													[0, 0.674],
													[0, 0],
													[-0.69, 0],
													[0, 0],
													[0, -0.673],
													[0, 0],
													[0.69, 0],
													[0, 0]
												],
												"v": [
													[5, 9.278],
													[3.75, 10.5],
													[-3.75, 10.5],
													[-5, 9.278],
													[-5, -9.279],
													[-3.75, -10.5],
													[3.75, -10.5],
													[5, -9.279]
												],
												"c": true
											}
										]
									}
								],
								"ix": 2
							},
							"nm": "Path 1",
							"mn": "ADBE Vector Shape - Group",
							"hd": false
						},
						{
							"ty": "fl",
							"c": {
								"a": 0,
								"k": [0.936999990426, 0.783999992819, 0.556999954523, 1],
								"ix": 4
							},
							"o": { "a": 0, "k": 100, "ix": 5 },
							"r": 1,
							"bm": 0,
							"nm": "Fill 1",
							"mn": "ADBE Vector Graphic - Fill",
							"hd": false
						},
						{
							"ty": "tr",
							"p": { "a": 0, "k": [27.25, 45.75], "ix": 2 },
							"a": { "a": 0, "k": [0, 0], "ix": 1 },
							"s": { "a": 0, "k": [100, 100], "ix": 3 },
							"r": { "a": 0, "k": 0, "ix": 6 },
							"o": { "a": 0, "k": 100, "ix": 7 },
							"sk": { "a": 0, "k": 0, "ix": 4 },
							"sa": { "a": 0, "k": 0, "ix": 5 },
							"nm": "Transform"
						}
					],
					"nm": "Group 3",
					"np": 2,
					"cix": 2,
					"bm": 0,
					"ix": 3,
					"mn": "ADBE Vector Group",
					"hd": false
				},
				{
					"ty": "gr",
					"it": [
						{
							"ind": 0,
							"ty": "sh",
							"ix": 1,
							"ks": {
								"a": 1,
								"k": [
									{
										"i": { "x": 0.667, "y": 1 },
										"o": { "x": 0.333, "y": 0 },
										"t": 7,
										"s": [
											{
												"i": [
													[0, 0],
													[0, 0],
													[0, 0],
													[0, 0],
													[0, 0]
												],
												"o": [
													[0, 0],
													[0, 0],
													[0, 0],
													[0, 0],
													[0, 0]
												],
												"v": [
													[10, -13],
													[14, -13],
													[14, 1],
													[-14, 7],
													[-14, 13]
												],
												"c": false
											}
										]
									},
									{
										"i": { "x": 0.667, "y": 1 },
										"o": { "x": 0.333, "y": 0 },
										"t": 14,
										"s": [
											{
												"i": [
													[0, 0],
													[0, 0],
													[0, 0],
													[0, 0],
													[0, 0]
												],
												"o": [
													[0, 0],
													[0, 0],
													[0, 0],
													[0, 0],
													[0, 0]
												],
												"v": [
													[10, -6.875],
													[14, -6.875],
													[14, 7.125],
													[-13.999, 11.141],
													[-13.999, 17.141]
												],
												"c": false
											}
										]
									},
									{
										"t": 21,
										"s": [
											{
												"i": [
													[0, 0],
													[0, 0],
													[0, 0],
													[0, 0],
													[0, 0]
												],
												"o": [
													[0, 0],
													[0, 0],
													[0, 0],
													[0, 0],
													[0, 0]
												],
												"v": [
													[10, -13],
													[14, -13],
													[14, 1],
													[-14, 7],
													[-14, 13]
												],
												"c": false
											}
										]
									}
								],
								"ix": 2
							},
							"nm": "Path 1",
							"mn": "ADBE Vector Shape - Group",
							"hd": false
						},
						{
							"ty": "st",
							"c": {
								"a": 0,
								"k": [0.552999997606, 0.423999980852, 0.62400004069, 1],
								"ix": 3
							},
							"o": { "a": 0, "k": 100, "ix": 4 },
							"w": { "a": 0, "k": 2, "ix": 5 },
							"lc": 1,
							"lj": 2,
							"bm": 0,
							"nm": "Stroke 1",
							"mn": "ADBE Vector Graphic - Stroke",
							"hd": false
						},
						{
							"ty": "tr",
							"p": { "a": 0, "k": [41.25, 22.25], "ix": 2 },
							"a": { "a": 0, "k": [0, 0], "ix": 1 },
							"s": { "a": 0, "k": [100, 100], "ix": 3 },
							"r": { "a": 0, "k": 0, "ix": 6 },
							"o": { "a": 0, "k": 100, "ix": 7 },
							"sk": { "a": 0, "k": 0, "ix": 4 },
							"sa": { "a": 0, "k": 0, "ix": 5 },
							"nm": "Transform"
						}
					],
					"nm": "Group 4",
					"np": 2,
					"cix": 2,
					"bm": 0,
					"ix": 4,
					"mn": "ADBE Vector Group",
					"hd": false
				},
				{
					"ty": "gr",
					"it": [
						{
							"ind": 0,
							"ty": "sh",
							"ix": 1,
							"ks": {
								"a": 1,
								"k": [
									{
										"i": { "x": 0.667, "y": 1 },
										"o": { "x": 0.333, "y": 0 },
										"t": 7,
										"s": [
											{
												"i": [
													[0.553, 0],
													[0, -0.553],
													[0, 0],
													[-0.553, 0],
													[0, 0.553],
													[0, 0]
												],
												"o": [
													[-0.553, 0],
													[0, 0],
													[0, 0.553],
													[0.553, 0],
													[0, 0],
													[0, -0.553]
												],
												"v": [
													[15, -2],
													[14, -1],
													[14, 1],
													[15, 2],
													[16, 1],
													[16, -1]
												],
												"c": true
											}
										]
									},
									{
										"i": { "x": 0.667, "y": 1 },
										"o": { "x": 0.333, "y": 0 },
										"t": 14,
										"s": [
											{
												"i": [
													[0.553, 0],
													[0, -0.553],
													[0, 0],
													[-0.553, 0],
													[0, 0.553],
													[0, 0]
												],
												"o": [
													[-0.553, 0],
													[0, 0],
													[0, 0.553],
													[0.553, 0],
													[0, 0],
													[0, -0.553]
												],
												"v": [
													[15, 4.125],
													[14, 5.125],
													[14, 7.125],
													[15, 8.125],
													[16, 7.125],
													[16, 5.125]
												],
												"c": true
											}
										]
									},
									{
										"t": 21,
										"s": [
											{
												"i": [
													[0.553, 0],
													[0, -0.553],
													[0, 0],
													[-0.553, 0],
													[0, 0.553],
													[0, 0]
												],
												"o": [
													[-0.553, 0],
													[0, 0],
													[0, 0.553],
													[0.553, 0],
													[0, 0],
													[0, -0.553]
												],
												"v": [
													[15, -2],
													[14, -1],
													[14, 1],
													[15, 2],
													[16, 1],
													[16, -1]
												],
												"c": true
											}
										]
									}
								],
								"ix": 2
							},
							"nm": "Path 1",
							"mn": "ADBE Vector Shape - Group",
							"hd": false
						},
						{
							"ind": 1,
							"ty": "sh",
							"ix": 2,
							"ks": {
								"a": 1,
								"k": [
									{
										"i": { "x": 0.667, "y": 1 },
										"o": { "x": 0.333, "y": 0 },
										"t": 7,
										"s": [
											{
												"i": [
													[0.553, 0],
													[0, -0.553],
													[0, 0],
													[-0.553, 0],
													[0, 0.553],
													[0, 0]
												],
												"o": [
													[-0.553, 0],
													[0, 0],
													[0, 0.553],
													[0.553, 0],
													[0, 0],
													[0, -0.553]
												],
												"v": [
													[20, -2],
													[19, -1],
													[19, 1],
													[20, 2],
													[21, 1],
													[21, -1]
												],
												"c": true
											}
										]
									},
									{
										"i": { "x": 0.667, "y": 1 },
										"o": { "x": 0.333, "y": 0 },
										"t": 14,
										"s": [
											{
												"i": [
													[0.553, 0],
													[0, -0.553],
													[0, 0],
													[-0.553, 0],
													[0, 0.553],
													[0, 0]
												],
												"o": [
													[-0.553, 0],
													[0, 0],
													[0, 0.553],
													[0.553, 0],
													[0, 0],
													[0, -0.553]
												],
												"v": [
													[20, 4.125],
													[19, 5.125],
													[19, 7.125],
													[20, 8.125],
													[21, 7.125],
													[21, 5.125]
												],
												"c": true
											}
										]
									},
									{
										"t": 21,
										"s": [
											{
												"i": [
													[0.553, 0],
													[0, -0.553],
													[0, 0],
													[-0.553, 0],
													[0, 0.553],
													[0, 0]
												],
												"o": [
													[-0.553, 0],
													[0, 0],
													[0, 0.553],
													[0.553, 0],
													[0, 0],
													[0, -0.553]
												],
												"v": [
													[20, -2],
													[19, -1],
													[19, 1],
													[20, 2],
													[21, 1],
													[21, -1]
												],
												"c": true
											}
										]
									}
								],
								"ix": 2
							},
							"nm": "Path 2",
							"mn": "ADBE Vector Shape - Group",
							"hd": false
						},
						{
							"ind": 2,
							"ty": "sh",
							"ix": 3,
							"ks": {
								"a": 1,
								"k": [
									{
										"i": { "x": 0.667, "y": 1 },
										"o": { "x": 0.333, "y": 0 },
										"t": 7,
										"s": [
											{
												"i": [
													[0.553, 0],
													[0, -0.553],
													[0, 0],
													[-0.553, 0],
													[0, 0.553],
													[0, 0]
												],
												"o": [
													[-0.553, 0],
													[0, 0],
													[0, 0.553],
													[0.553, 0],
													[0, 0],
													[0, -0.553]
												],
												"v": [
													[10, -2],
													[9, -1],
													[9, 1],
													[10, 2],
													[11, 1],
													[11, -1]
												],
												"c": true
											}
										]
									},
									{
										"i": { "x": 0.667, "y": 1 },
										"o": { "x": 0.333, "y": 0 },
										"t": 14,
										"s": [
											{
												"i": [
													[0.553, 0],
													[0, -0.553],
													[0, 0],
													[-0.553, 0],
													[0, 0.553],
													[0, 0]
												],
												"o": [
													[-0.553, 0],
													[0, 0],
													[0, 0.553],
													[0.553, 0],
													[0, 0],
													[0, -0.553]
												],
												"v": [
													[10, 4.125],
													[9, 5.125],
													[9, 7.125],
													[10, 8.125],
													[11, 7.125],
													[11, 5.125]
												],
												"c": true
											}
										]
									},
									{
										"t": 21,
										"s": [
											{
												"i": [
													[0.553, 0],
													[0, -0.553],
													[0, 0],
													[-0.553, 0],
													[0, 0.553],
													[0, 0]
												],
												"o": [
													[-0.553, 0],
													[0, 0],
													[0, 0.553],
													[0.553, 0],
													[0, 0],
													[0, -0.553]
												],
												"v": [
													[10, -2],
													[9, -1],
													[9, 1],
													[10, 2],
													[11, 1],
													[11, -1]
												],
												"c": true
											}
										]
									}
								],
								"ix": 2
							},
							"nm": "Path 3",
							"mn": "ADBE Vector Shape - Group",
							"hd": false
						},
						{
							"ind": 3,
							"ty": "sh",
							"ix": 4,
							"ks": {
								"a": 1,
								"k": [
									{
										"i": { "x": 0.667, "y": 1 },
										"o": { "x": 0.333, "y": 0 },
										"t": 7,
										"s": [
											{
												"i": [
													[0.553, 0],
													[0, -0.553],
													[0, 0],
													[-0.553, 0],
													[0, 0.553],
													[0, 0]
												],
												"o": [
													[-0.553, 0],
													[0, 0],
													[0, 0.553],
													[0.553, 0],
													[0, 0],
													[0, -0.553]
												],
												"v": [
													[-5, -2],
													[-6, -1],
													[-6, 1],
													[-5, 2],
													[-4, 1],
													[-4, -1]
												],
												"c": true
											}
										]
									},
									{
										"i": { "x": 0.667, "y": 1 },
										"o": { "x": 0.333, "y": 0 },
										"t": 14,
										"s": [
											{
												"i": [
													[0.553, 0],
													[0, -0.553],
													[0, 0],
													[-0.553, 0],
													[0, 0.553],
													[0, 0]
												],
												"o": [
													[-0.553, 0],
													[0, 0],
													[0, 0.553],
													[0.553, 0],
													[0, 0],
													[0, -0.553]
												],
												"v": [
													[-5, 4.125],
													[-6, 5.125],
													[-6, 7.125],
													[-5, 8.125],
													[-4, 7.125],
													[-4, 5.125]
												],
												"c": true
											}
										]
									},
									{
										"t": 21,
										"s": [
											{
												"i": [
													[0.553, 0],
													[0, -0.553],
													[0, 0],
													[-0.553, 0],
													[0, 0.553],
													[0, 0]
												],
												"o": [
													[-0.553, 0],
													[0, 0],
													[0, 0.553],
													[0.553, 0],
													[0, 0],
													[0, -0.553]
												],
												"v": [
													[-5, -2],
													[-6, -1],
													[-6, 1],
													[-5, 2],
													[-4, 1],
													[-4, -1]
												],
												"c": true
											}
										]
									}
								],
								"ix": 2
							},
							"nm": "Path 4",
							"mn": "ADBE Vector Shape - Group",
							"hd": false
						},
						{
							"ind": 4,
							"ty": "sh",
							"ix": 5,
							"ks": {
								"a": 1,
								"k": [
									{
										"i": { "x": 0.667, "y": 1 },
										"o": { "x": 0.333, "y": 0 },
										"t": 7,
										"s": [
											{
												"i": [
													[0.553, 0],
													[0, -0.553],
													[0, 0],
													[-0.553, 0],
													[0, 0.553],
													[0, 0]
												],
												"o": [
													[-0.553, 0],
													[0, 0],
													[0, 0.553],
													[0.553, 0],
													[0, 0],
													[0, -0.553]
												],
												"v": [
													[0, -2],
													[-1, -1],
													[-1, 1],
													[0, 2],
													[1, 1],
													[1, -1]
												],
												"c": true
											}
										]
									},
									{
										"i": { "x": 0.667, "y": 1 },
										"o": { "x": 0.333, "y": 0 },
										"t": 14,
										"s": [
											{
												"i": [
													[0.553, 0],
													[0, -0.553],
													[0, 0],
													[-0.553, 0],
													[0, 0.553],
													[0, 0]
												],
												"o": [
													[-0.553, 0],
													[0, 0],
													[0, 0.553],
													[0.553, 0],
													[0, 0],
													[0, -0.553]
												],
												"v": [
													[0, 4.125],
													[-1, 5.125],
													[-1, 7.125],
													[0, 8.125],
													[1, 7.125],
													[1, 5.125]
												],
												"c": true
											}
										]
									},
									{
										"t": 21,
										"s": [
											{
												"i": [
													[0.553, 0],
													[0, -0.553],
													[0, 0],
													[-0.553, 0],
													[0, 0.553],
													[0, 0]
												],
												"o": [
													[-0.553, 0],
													[0, 0],
													[0, 0.553],
													[0.553, 0],
													[0, 0],
													[0, -0.553]
												],
												"v": [
													[0, -2],
													[-1, -1],
													[-1, 1],
													[0, 2],
													[1, 1],
													[1, -1]
												],
												"c": true
											}
										]
									}
								],
								"ix": 2
							},
							"nm": "Path 5",
							"mn": "ADBE Vector Shape - Group",
							"hd": false
						},
						{
							"ind": 5,
							"ty": "sh",
							"ix": 6,
							"ks": {
								"a": 1,
								"k": [
									{
										"i": { "x": 0.667, "y": 1 },
										"o": { "x": 0.333, "y": 0 },
										"t": 7,
										"s": [
											{
												"i": [
													[0.553, 0],
													[0, -0.553],
													[0, 0],
													[-0.553, 0],
													[0, 0.553],
													[0, 0]
												],
												"o": [
													[-0.553, 0],
													[0, 0],
													[0, 0.553],
													[0.553, 0],
													[0, 0],
													[0, -0.553]
												],
												"v": [
													[5, -2],
													[4, -1],
													[4, 1],
													[5, 2],
													[6, 1],
													[6, -1]
												],
												"c": true
											}
										]
									},
									{
										"i": { "x": 0.667, "y": 1 },
										"o": { "x": 0.333, "y": 0 },
										"t": 14,
										"s": [
											{
												"i": [
													[0.553, 0],
													[0, -0.553],
													[0, 0],
													[-0.553, 0],
													[0, 0.553],
													[0, 0]
												],
												"o": [
													[-0.553, 0],
													[0, 0],
													[0, 0.553],
													[0.553, 0],
													[0, 0],
													[0, -0.553]
												],
												"v": [
													[5, 4.125],
													[4, 5.125],
													[4, 7.125],
													[5, 8.125],
													[6, 7.125],
													[6, 5.125]
												],
												"c": true
											}
										]
									},
									{
										"t": 21,
										"s": [
											{
												"i": [
													[0.553, 0],
													[0, -0.553],
													[0, 0],
													[-0.553, 0],
													[0, 0.553],
													[0, 0]
												],
												"o": [
													[-0.553, 0],
													[0, 0],
													[0, 0.553],
													[0.553, 0],
													[0, 0],
													[0, -0.553]
												],
												"v": [
													[5, -2],
													[4, -1],
													[4, 1],
													[5, 2],
													[6, 1],
													[6, -1]
												],
												"c": true
											}
										]
									}
								],
								"ix": 2
							},
							"nm": "Path 6",
							"mn": "ADBE Vector Shape - Group",
							"hd": false
						},
						{
							"ind": 6,
							"ty": "sh",
							"ix": 7,
							"ks": {
								"a": 1,
								"k": [
									{
										"i": { "x": 0.667, "y": 1 },
										"o": { "x": 0.333, "y": 0 },
										"t": 7,
										"s": [
											{
												"i": [
													[0.553, 0],
													[0, -0.553],
													[0, 0],
													[-0.553, 0],
													[0, 0.553],
													[0, 0]
												],
												"o": [
													[-0.553, 0],
													[0, 0],
													[0, 0.553],
													[0.553, 0],
													[0, 0],
													[0, -0.553]
												],
												"v": [
													[-20, -2],
													[-21, -1],
													[-21, 1],
													[-20, 2],
													[-19, 1],
													[-19, -1]
												],
												"c": true
											}
										]
									},
									{
										"i": { "x": 0.667, "y": 1 },
										"o": { "x": 0.333, "y": 0 },
										"t": 14,
										"s": [
											{
												"i": [
													[0.553, 0],
													[0, -0.553],
													[0, 0],
													[-0.553, 0],
													[0, 0.553],
													[0, 0]
												],
												"o": [
													[-0.553, 0],
													[0, 0],
													[0, 0.553],
													[0.553, 0],
													[0, 0],
													[0, -0.553]
												],
												"v": [
													[-20, 4.125],
													[-21, 5.125],
													[-21, 7.125],
													[-20, 8.125],
													[-19, 7.125],
													[-19, 5.125]
												],
												"c": true
											}
										]
									},
									{
										"t": 21,
										"s": [
											{
												"i": [
													[0.553, 0],
													[0, -0.553],
													[0, 0],
													[-0.553, 0],
													[0, 0.553],
													[0, 0]
												],
												"o": [
													[-0.553, 0],
													[0, 0],
													[0, 0.553],
													[0.553, 0],
													[0, 0],
													[0, -0.553]
												],
												"v": [
													[-20, -2],
													[-21, -1],
													[-21, 1],
													[-20, 2],
													[-19, 1],
													[-19, -1]
												],
												"c": true
											}
										]
									}
								],
								"ix": 2
							},
							"nm": "Path 7",
							"mn": "ADBE Vector Shape - Group",
							"hd": false
						},
						{
							"ind": 7,
							"ty": "sh",
							"ix": 8,
							"ks": {
								"a": 1,
								"k": [
									{
										"i": { "x": 0.667, "y": 1 },
										"o": { "x": 0.333, "y": 0 },
										"t": 7,
										"s": [
											{
												"i": [
													[0.553, 0],
													[0, -0.553],
													[0, 0],
													[-0.553, 0],
													[0, 0.553],
													[0, 0]
												],
												"o": [
													[-0.553, 0],
													[0, 0],
													[0, 0.553],
													[0.553, 0],
													[0, 0],
													[0, -0.553]
												],
												"v": [
													[-15, -2],
													[-16, -1],
													[-16, 1],
													[-15, 2],
													[-14, 1],
													[-14, -1]
												],
												"c": true
											}
										]
									},
									{
										"i": { "x": 0.667, "y": 1 },
										"o": { "x": 0.333, "y": 0 },
										"t": 14,
										"s": [
											{
												"i": [
													[0.553, 0],
													[0, -0.553],
													[0, 0],
													[-0.553, 0],
													[0, 0.553],
													[0, 0]
												],
												"o": [
													[-0.553, 0],
													[0, 0],
													[0, 0.553],
													[0.553, 0],
													[0, 0],
													[0, -0.553]
												],
												"v": [
													[-15, 4.125],
													[-16, 5.125],
													[-16, 7.125],
													[-15, 8.125],
													[-14, 7.125],
													[-14, 5.125]
												],
												"c": true
											}
										]
									},
									{
										"t": 21,
										"s": [
											{
												"i": [
													[0.553, 0],
													[0, -0.553],
													[0, 0],
													[-0.553, 0],
													[0, 0.553],
													[0, 0]
												],
												"o": [
													[-0.553, 0],
													[0, 0],
													[0, 0.553],
													[0.553, 0],
													[0, 0],
													[0, -0.553]
												],
												"v": [
													[-15, -2],
													[-16, -1],
													[-16, 1],
													[-15, 2],
													[-14, 1],
													[-14, -1]
												],
												"c": true
											}
										]
									}
								],
								"ix": 2
							},
							"nm": "Path 8",
							"mn": "ADBE Vector Shape - Group",
							"hd": false
						},
						{
							"ind": 8,
							"ty": "sh",
							"ix": 9,
							"ks": {
								"a": 1,
								"k": [
									{
										"i": { "x": 0.667, "y": 1 },
										"o": { "x": 0.333, "y": 0 },
										"t": 7,
										"s": [
											{
												"i": [
													[0.553, 0],
													[0, -0.553],
													[0, 0],
													[-0.553, 0],
													[0, 0.553],
													[0, 0]
												],
												"o": [
													[-0.553, 0],
													[0, 0],
													[0, 0.553],
													[0.553, 0],
													[0, 0],
													[0, -0.553]
												],
												"v": [
													[-10, -2],
													[-11, -1],
													[-11, 1],
													[-10, 2],
													[-9, 1],
													[-9, -1]
												],
												"c": true
											}
										]
									},
									{
										"i": { "x": 0.667, "y": 1 },
										"o": { "x": 0.333, "y": 0 },
										"t": 14,
										"s": [
											{
												"i": [
													[0.553, 0],
													[0, -0.553],
													[0, 0],
													[-0.553, 0],
													[0, 0.553],
													[0, 0]
												],
												"o": [
													[-0.553, 0],
													[0, 0],
													[0, 0.553],
													[0.553, 0],
													[0, 0],
													[0, -0.553]
												],
												"v": [
													[-10, 4.125],
													[-11, 5.125],
													[-11, 7.125],
													[-10, 8.125],
													[-9, 7.125],
													[-9, 5.125]
												],
												"c": true
											}
										]
									},
									{
										"t": 21,
										"s": [
											{
												"i": [
													[0.553, 0],
													[0, -0.553],
													[0, 0],
													[-0.553, 0],
													[0, 0.553],
													[0, 0]
												],
												"o": [
													[-0.553, 0],
													[0, 0],
													[0, 0.553],
													[0.553, 0],
													[0, 0],
													[0, -0.553]
												],
												"v": [
													[-10, -2],
													[-11, -1],
													[-11, 1],
													[-10, 2],
													[-9, 1],
													[-9, -1]
												],
												"c": true
											}
										]
									}
								],
								"ix": 2
							},
							"nm": "Path 9",
							"mn": "ADBE Vector Shape - Group",
							"hd": false
						},
						{
							"ty": "mm",
							"mm": 1,
							"nm": "Merge Paths 1",
							"mn": "ADBE Vector Filter - Merge",
							"hd": false
						},
						{
							"ty": "fl",
							"c": {
								"a": 0,
								"k": [0.552999997606, 0.423999980852, 0.62400004069, 1],
								"ix": 4
							},
							"o": { "a": 0, "k": 100, "ix": 5 },
							"r": 1,
							"bm": 0,
							"nm": "Fill 1",
							"mn": "ADBE Vector Graphic - Fill",
							"hd": false
						},
						{
							"ty": "tr",
							"p": { "a": 0, "k": [26.25, 6.25], "ix": 2 },
							"a": { "a": 0, "k": [0, 0], "ix": 1 },
							"s": { "a": 0, "k": [100, 100], "ix": 3 },
							"r": { "a": 0, "k": 0, "ix": 6 },
							"o": { "a": 0, "k": 100, "ix": 7 },
							"sk": { "a": 0, "k": 0, "ix": 4 },
							"sa": { "a": 0, "k": 0, "ix": 5 },
							"nm": "Transform"
						}
					],
					"nm": "Group 5",
					"np": 11,
					"cix": 2,
					"bm": 0,
					"ix": 5,
					"mn": "ADBE Vector Group",
					"hd": false
				},
				{
					"ty": "gr",
					"it": [
						{
							"ind": 0,
							"ty": "sh",
							"ix": 1,
							"ks": {
								"a": 1,
								"k": [
									{
										"i": { "x": 0.667, "y": 1 },
										"o": { "x": 0.333, "y": 0 },
										"t": 7,
										"s": [
											{
												"i": [
													[0, 0],
													[0, -0.058],
													[0, 0],
													[-0.135, 0],
													[0, 0],
													[0, 0.058],
													[0, 0],
													[0.135, 0]
												],
												"o": [
													[-0.135, 0],
													[0, 0],
													[0, 0.058],
													[0, 0],
													[0.134, 0],
													[0, 0],
													[0, -0.058],
													[0, 0]
												],
												"v": [
													[-23.78, -7],
													[-24, -6.857],
													[-24, 6.857],
													[-23.78, 7],
													[23.78, 7],
													[24, 6.857],
													[24, -6.857],
													[23.78, -7]
												],
												"c": true
											}
										]
									},
									{
										"i": { "x": 0.667, "y": 1 },
										"o": { "x": 0.333, "y": 0 },
										"t": 14,
										"s": [
											{
												"i": [
													[0, 0],
													[0, -0.058],
													[0, 0],
													[-0.135, 0],
													[0, 0],
													[0, 0.058],
													[0, 0],
													[0.135, 0]
												],
												"o": [
													[-0.135, 0],
													[0, 0],
													[0, 0.058],
													[0, 0],
													[0.134, 0],
													[0, 0],
													[0, -0.058],
													[0, 0]
												],
												"v": [
													[-23.78, -0.875],
													[-24, -0.732],
													[-24, 12.982],
													[-23.78, 13.125],
													[23.78, 13.125],
													[24, 12.982],
													[24, -0.732],
													[23.78, -0.875]
												],
												"c": true
											}
										]
									},
									{
										"t": 21,
										"s": [
											{
												"i": [
													[0, 0],
													[0, -0.058],
													[0, 0],
													[-0.135, 0],
													[0, 0],
													[0, 0.058],
													[0, 0],
													[0.135, 0]
												],
												"o": [
													[-0.135, 0],
													[0, 0],
													[0, 0.058],
													[0, 0],
													[0.134, 0],
													[0, 0],
													[0, -0.058],
													[0, 0]
												],
												"v": [
													[-23.78, -7],
													[-24, -6.857],
													[-24, 6.857],
													[-23.78, 7],
													[23.78, 7],
													[24, 6.857],
													[24, -6.857],
													[23.78, -7]
												],
												"c": true
											}
										]
									}
								],
								"ix": 2
							},
							"nm": "Path 1",
							"mn": "ADBE Vector Shape - Group",
							"hd": false
						},
						{
							"ind": 1,
							"ty": "sh",
							"ix": 2,
							"ks": {
								"a": 1,
								"k": [
									{
										"i": { "x": 0.667, "y": 1 },
										"o": { "x": 0.333, "y": 0 },
										"t": 7,
										"s": [
											{
												"i": [
													[1.224, 0],
													[0, 0],
													[0, 1.182],
													[0, 0],
													[-1.224, 0],
													[0, 0],
													[0, -1.182],
													[0, 0]
												],
												"o": [
													[0, 0],
													[-1.224, 0],
													[0, 0],
													[0, -1.182],
													[0, 0],
													[1.224, 0],
													[0, 0],
													[0, 1.182]
												],
												"v": [
													[23.78, 9],
													[-23.78, 9],
													[-26, 6.857],
													[-26, -6.857],
													[-23.78, -9],
													[23.78, -9],
													[26, -6.857],
													[26, 6.857]
												],
												"c": true
											}
										]
									},
									{
										"i": { "x": 0.667, "y": 1 },
										"o": { "x": 0.333, "y": 0 },
										"t": 14,
										"s": [
											{
												"i": [
													[1.224, 0],
													[0, 0],
													[0, 1.182],
													[0, 0],
													[-1.224, 0],
													[0, 0],
													[0, -1.182],
													[0, 0]
												],
												"o": [
													[0, 0],
													[-1.224, 0],
													[0, 0],
													[0, -1.182],
													[0, 0],
													[1.224, 0],
													[0, 0],
													[0, 1.182]
												],
												"v": [
													[23.78, 15.125],
													[-23.78, 15.125],
													[-26, 12.982],
													[-26, -0.732],
													[-23.78, -2.875],
													[23.78, -2.875],
													[26, -0.732],
													[26, 12.982]
												],
												"c": true
											}
										]
									},
									{
										"t": 21,
										"s": [
											{
												"i": [
													[1.224, 0],
													[0, 0],
													[0, 1.182],
													[0, 0],
													[-1.224, 0],
													[0, 0],
													[0, -1.182],
													[0, 0]
												],
												"o": [
													[0, 0],
													[-1.224, 0],
													[0, 0],
													[0, -1.182],
													[0, 0],
													[1.224, 0],
													[0, 0],
													[0, 1.182]
												],
												"v": [
													[23.78, 9],
													[-23.78, 9],
													[-26, 6.857],
													[-26, -6.857],
													[-23.78, -9],
													[23.78, -9],
													[26, -6.857],
													[26, 6.857]
												],
												"c": true
											}
										]
									}
								],
								"ix": 2
							},
							"nm": "Path 2",
							"mn": "ADBE Vector Shape - Group",
							"hd": false
						},
						{
							"ty": "mm",
							"mm": 1,
							"nm": "Merge Paths 1",
							"mn": "ADBE Vector Filter - Merge",
							"hd": false
						},
						{
							"ty": "fl",
							"c": {
								"a": 0,
								"k": [0.552999997606, 0.423999980852, 0.62400004069, 1],
								"ix": 4
							},
							"o": { "a": 0, "k": 100, "ix": 5 },
							"r": 1,
							"bm": 0,
							"nm": "Fill 1",
							"mn": "ADBE Vector Graphic - Fill",
							"hd": false
						},
						{
							"ty": "tr",
							"p": { "a": 0, "k": [26.25, 9.25], "ix": 2 },
							"a": { "a": 0, "k": [0, 0], "ix": 1 },
							"s": { "a": 0, "k": [100, 100], "ix": 3 },
							"r": { "a": 0, "k": 0, "ix": 6 },
							"o": { "a": 0, "k": 100, "ix": 7 },
							"sk": { "a": 0, "k": 0, "ix": 4 },
							"sa": { "a": 0, "k": 0, "ix": 5 },
							"nm": "Transform"
						}
					],
					"nm": "Group 6",
					"np": 4,
					"cix": 2,
					"bm": 0,
					"ix": 6,
					"mn": "ADBE Vector Group",
					"hd": false
				}
			],
			"ip": 0,
			"op": 28,
			"st": 0,
			"bm": 0
		},
		{
			"ddd": 0,
			"ind": 2,
			"ty": 4,
			"nm": "paint Outlines",
			"sr": 1,
			"ks": {
				"o": { "a": 0, "k": 100, "ix": 11 },
				"r": { "a": 0, "k": 0, "ix": 10 },
				"p": {
					"a": 1,
					"k": [
						{
							"i": { "x": 0.667, "y": 1 },
							"o": { "x": 0.333, "y": 0 },
							"t": 7,
							"s": [28.5, -6, 0],
							"to": [0, 4.542, 0],
							"ti": [0, 0, 0]
						},
						{
							"i": { "x": 0.667, "y": 1 },
							"o": { "x": 0.333, "y": 0 },
							"t": 14,
							"s": [28.5, 21.25, 0],
							"to": [0, 0, 0],
							"ti": [0, 4.542, 0]
						},
						{ "t": 21, "s": [28.5, -6, 0] }
					],
					"ix": 2
				},
				"a": { "a": 0, "k": [27.75, 8.25, 0], "ix": 1 },
				"s": { "a": 0, "k": [100, 100, 100], "ix": 6 }
			},
			"ao": 0,
			"hasMask": true,
			"masksProperties": [
				{
					"inv": false,
					"mode": "a",
					"pt": {
						"a": 1,
						"k": [
							{
								"i": { "x": 0.667, "y": 1 },
								"o": { "x": 0.333, "y": 0 },
								"t": 7,
								"s": [
									{
										"i": [
											[0, 0],
											[0, 0],
											[0, 0],
											[0, 0]
										],
										"o": [
											[0, 0],
											[0, 0],
											[0, 0],
											[0, 0]
										],
										"v": [
											[3.5, 16.875],
											[3.5, 31.75],
											[53.375, 31.75],
											[53.375, 16.875]
										],
										"c": true
									}
								]
							},
							{
								"i": { "x": 0.667, "y": 1 },
								"o": { "x": 0.333, "y": 0 },
								"t": 14,
								"s": [
									{
										"i": [
											[0, 0],
											[0, 0],
											[0, 0],
											[0, 0]
										],
										"o": [
											[0, 0],
											[0, 0],
											[0, 0],
											[0, 0]
										],
										"v": [
											[3.5, 0.625],
											[3.5, 15.5],
											[53.375, 15.5],
											[53.375, 0.625]
										],
										"c": true
									}
								]
							},
							{
								"t": 21,
								"s": [
									{
										"i": [
											[0, 0],
											[0, 0],
											[0, 0],
											[0, 0]
										],
										"o": [
											[0, 0],
											[0, 0],
											[0, 0],
											[0, 0]
										],
										"v": [
											[3.5, 16.875],
											[3.5, 31.75],
											[53.375, 31.75],
											[53.375, 16.875]
										],
										"c": true
									}
								]
							}
						],
						"ix": 1
					},
					"o": { "a": 0, "k": 100, "ix": 3 },
					"x": { "a": 0, "k": 0, "ix": 4 },
					"nm": "Mask 1"
				}
			],
			"shapes": [
				{
					"ty": "gr",
					"it": [
						{
							"ind": 0,
							"ty": "sh",
							"ix": 1,
							"ks": {
								"a": 0,
								"k": {
									"i": [
										[1.104, 0],
										[0, 0],
										[0, 1.104],
										[-1.104, 0],
										[0, 0],
										[0, -1.104]
									],
									"o": [
										[0, 0],
										[-1.104, 0],
										[0, -1.104],
										[0, 0],
										[1.104, 0],
										[0, 1.104]
									],
									"v": [
										[2.5, 2],
										[-2.5, 2],
										[-4.5, 0],
										[-2.5, -2],
										[2.5, -2],
										[4.5, 0]
									],
									"c": true
								},
								"ix": 2
							},
							"nm": "Path 1",
							"mn": "ADBE Vector Shape - Group",
							"hd": false
						},
						{
							"ty": "fl",
							"c": { "a": 0, "k": [1, 1, 1, 1], "ix": 4 },
							"o": { "a": 0, "k": 100, "ix": 5 },
							"r": 1,
							"bm": 0,
							"nm": "Fill 1",
							"mn": "ADBE Vector Graphic - Fill",
							"hd": false
						},
						{
							"ty": "tr",
							"p": { "a": 0, "k": [16.75, 2.25], "ix": 2 },
							"a": { "a": 0, "k": [0, 0], "ix": 1 },
							"s": { "a": 0, "k": [100, 100], "ix": 3 },
							"r": { "a": 0, "k": 0, "ix": 6 },
							"o": { "a": 0, "k": 100, "ix": 7 },
							"sk": { "a": 0, "k": 0, "ix": 4 },
							"sa": { "a": 0, "k": 0, "ix": 5 },
							"nm": "Transform"
						}
					],
					"nm": "Group 1",
					"np": 2,
					"cix": 2,
					"bm": 0,
					"ix": 1,
					"mn": "ADBE Vector Group",
					"hd": false
				},
				{
					"ty": "gr",
					"it": [
						{
							"ind": 0,
							"ty": "sh",
							"ix": 1,
							"ks": {
								"a": 0,
								"k": {
									"i": [
										[1.104, 0],
										[0, 0],
										[0, 1.104],
										[-1.104, 0],
										[0, 0],
										[0, -1.104]
									],
									"o": [
										[0, 0],
										[-1.104, 0],
										[0, -1.104],
										[0, 0],
										[1.104, 0],
										[0, 1.104]
									],
									"v": [
										[2.5, 2],
										[-2.5, 2],
										[-4.5, 0],
										[-2.5, -2],
										[2.5, -2],
										[4.5, 0]
									],
									"c": true
								},
								"ix": 2
							},
							"nm": "Path 1",
							"mn": "ADBE Vector Shape - Group",
							"hd": false
						},
						{
							"ty": "fl",
							"c": { "a": 0, "k": [1, 1, 1, 1], "ix": 4 },
							"o": { "a": 0, "k": 100, "ix": 5 },
							"r": 1,
							"bm": 0,
							"nm": "Fill 1",
							"mn": "ADBE Vector Graphic - Fill",
							"hd": false
						},
						{
							"ty": "tr",
							"p": { "a": 0, "k": [31.75, 14.25], "ix": 2 },
							"a": { "a": 0, "k": [0, 0], "ix": 1 },
							"s": { "a": 0, "k": [100, 100], "ix": 3 },
							"r": { "a": 0, "k": 0, "ix": 6 },
							"o": { "a": 0, "k": 100, "ix": 7 },
							"sk": { "a": 0, "k": 0, "ix": 4 },
							"sa": { "a": 0, "k": 0, "ix": 5 },
							"nm": "Transform"
						}
					],
					"nm": "Group 2",
					"np": 2,
					"cix": 2,
					"bm": 0,
					"ix": 2,
					"mn": "ADBE Vector Group",
					"hd": false
				},
				{
					"ty": "gr",
					"it": [
						{
							"ind": 0,
							"ty": "sh",
							"ix": 1,
							"ks": {
								"a": 0,
								"k": {
									"i": [
										[-1.104, 0],
										[0, 0],
										[0, 0],
										[0, 0],
										[0, 1.104]
									],
									"o": [
										[0, 0],
										[0, 0],
										[0, 0],
										[-1.104, 0],
										[0, -1.104]
									],
									"v": [
										[-10, -2],
										[12, -2],
										[12, 2],
										[-10, 2],
										[-12, 0]
									],
									"c": true
								},
								"ix": 2
							},
							"nm": "Path 1",
							"mn": "ADBE Vector Shape - Group",
							"hd": false
						},
						{
							"ty": "fl",
							"c": { "a": 0, "k": [1, 1, 1, 1], "ix": 4 },
							"o": { "a": 0, "k": 100, "ix": 5 },
							"r": 1,
							"bm": 0,
							"nm": "Fill 1",
							"mn": "ADBE Vector Graphic - Fill",
							"hd": false
						},
						{
							"ty": "tr",
							"p": { "a": 0, "k": [43.25, 6.25], "ix": 2 },
							"a": { "a": 0, "k": [0, 0], "ix": 1 },
							"s": { "a": 0, "k": [100, 100], "ix": 3 },
							"r": { "a": 0, "k": 0, "ix": 6 },
							"o": { "a": 0, "k": 100, "ix": 7 },
							"sk": { "a": 0, "k": 0, "ix": 4 },
							"sa": { "a": 0, "k": 0, "ix": 5 },
							"nm": "Transform"
						}
					],
					"nm": "Group 3",
					"np": 2,
					"cix": 2,
					"bm": 0,
					"ix": 3,
					"mn": "ADBE Vector Group",
					"hd": false
				},
				{
					"ty": "gr",
					"it": [
						{
							"ind": 0,
							"ty": "sh",
							"ix": 1,
							"ks": {
								"a": 0,
								"k": {
									"i": [
										[-1.104, 0],
										[0, 0],
										[0, 0],
										[0, 0],
										[0, 1.104]
									],
									"o": [
										[0, 0],
										[0, 0],
										[0, 0],
										[-1.104, 0],
										[0, -1.104]
									],
									"v": [
										[-6.5, -2],
										[8.5, -2],
										[8.5, 2],
										[-6.5, 2],
										[-8.5, 0]
									],
									"c": true
								},
								"ix": 2
							},
							"nm": "Path 1",
							"mn": "ADBE Vector Shape - Group",
							"hd": false
						},
						{
							"ty": "fl",
							"c": { "a": 0, "k": [1, 1, 1, 1], "ix": 4 },
							"o": { "a": 0, "k": 100, "ix": 5 },
							"r": 1,
							"bm": 0,
							"nm": "Fill 1",
							"mn": "ADBE Vector Graphic - Fill",
							"hd": false
						},
						{
							"ty": "tr",
							"p": { "a": 0, "k": [46.75, 14.25], "ix": 2 },
							"a": { "a": 0, "k": [0, 0], "ix": 1 },
							"s": { "a": 0, "k": [100, 100], "ix": 3 },
							"r": { "a": 0, "k": 0, "ix": 6 },
							"o": { "a": 0, "k": 100, "ix": 7 },
							"sk": { "a": 0, "k": 0, "ix": 4 },
							"sa": { "a": 0, "k": 0, "ix": 5 },
							"nm": "Transform"
						}
					],
					"nm": "Group 4",
					"np": 2,
					"cix": 2,
					"bm": 0,
					"ix": 4,
					"mn": "ADBE Vector Group",
					"hd": false
				},
				{
					"ty": "gr",
					"it": [
						{
							"ind": 0,
							"ty": "sh",
							"ix": 1,
							"ks": {
								"a": 0,
								"k": {
									"i": [
										[1.104, 0],
										[0, 0],
										[0, 0],
										[0, 0],
										[0, -1.104]
									],
									"o": [
										[0, 0],
										[0, 0],
										[0, 0],
										[1.104, 0],
										[0, 1.104]
									],
									"v": [
										[10, 2],
										[-12, 2],
										[-12, -2],
										[10, -2],
										[12, 0]
									],
									"c": true
								},
								"ix": 2
							},
							"nm": "Path 1",
							"mn": "ADBE Vector Shape - Group",
							"hd": false
						},
						{
							"ty": "fl",
							"c": { "a": 0, "k": [1, 1, 1, 1], "ix": 4 },
							"o": { "a": 0, "k": 100, "ix": 5 },
							"r": 1,
							"bm": 0,
							"nm": "Fill 1",
							"mn": "ADBE Vector Graphic - Fill",
							"hd": false
						},
						{
							"ty": "tr",
							"p": { "a": 0, "k": [12.25, 10.25], "ix": 2 },
							"a": { "a": 0, "k": [0, 0], "ix": 1 },
							"s": { "a": 0, "k": [100, 100], "ix": 3 },
							"r": { "a": 0, "k": 0, "ix": 6 },
							"o": { "a": 0, "k": 100, "ix": 7 },
							"sk": { "a": 0, "k": 0, "ix": 4 },
							"sa": { "a": 0, "k": 0, "ix": 5 },
							"nm": "Transform"
						}
					],
					"nm": "Group 5",
					"np": 2,
					"cix": 2,
					"bm": 0,
					"ix": 5,
					"mn": "ADBE Vector Group",
					"hd": false
				},
				{
					"ty": "gr",
					"it": [
						{
							"ind": 0,
							"ty": "sh",
							"ix": 1,
							"ks": {
								"a": 0,
								"k": {
									"i": [
										[1.104, 0],
										[0, 0],
										[0, 0],
										[0, 0],
										[0, -1.104]
									],
									"o": [
										[0, 0],
										[0, 0],
										[0, 0],
										[1.104, 0],
										[0, 1.104]
									],
									"v": [
										[3, 2],
										[-5, 2],
										[-5, -2],
										[3, -2],
										[5, 0]
									],
									"c": true
								},
								"ix": 2
							},
							"nm": "Path 1",
							"mn": "ADBE Vector Shape - Group",
							"hd": false
						},
						{
							"ty": "fl",
							"c": { "a": 0, "k": [1, 1, 1, 1], "ix": 4 },
							"o": { "a": 0, "k": 100, "ix": 5 },
							"r": 1,
							"bm": 0,
							"nm": "Fill 1",
							"mn": "ADBE Vector Graphic - Fill",
							"hd": false
						},
						{
							"ty": "tr",
							"p": { "a": 0, "k": [5.25, 2.25], "ix": 2 },
							"a": { "a": 0, "k": [0, 0], "ix": 1 },
							"s": { "a": 0, "k": [100, 100], "ix": 3 },
							"r": { "a": 0, "k": 0, "ix": 6 },
							"o": { "a": 0, "k": 100, "ix": 7 },
							"sk": { "a": 0, "k": 0, "ix": 4 },
							"sa": { "a": 0, "k": 0, "ix": 5 },
							"nm": "Transform"
						}
					],
					"nm": "Group 6",
					"np": 2,
					"cix": 2,
					"bm": 0,
					"ix": 6,
					"mn": "ADBE Vector Group",
					"hd": false
				}
			],
			"ip": 0,
			"op": 28,
			"st": 0,
			"bm": 0
		},
		{
			"ddd": 0,
			"ind": 3,
			"ty": 4,
			"nm": "roller-fill Outlines",
			"sr": 1,
			"ks": {
				"o": { "a": 0, "k": 100, "ix": 11 },
				"r": { "a": 0, "k": 0, "ix": 10 },
				"p": {
					"a": 1,
					"k": [
						{
							"i": { "x": 0.667, "y": 1 },
							"o": { "x": 0.333, "y": 0 },
							"t": 3,
							"s": [29, 14, 0],
							"to": [0, -0.656, 0],
							"ti": [0, -1.167, 0]
						},
						{
							"i": { "x": 0.667, "y": 1 },
							"o": { "x": 0.333, "y": 0 },
							"t": 7,
							"s": [29, 10.063, 0],
							"to": [0, 1.167, 0],
							"ti": [0, 0, 0]
						},
						{
							"i": { "x": 0.667, "y": 1 },
							"o": { "x": 0.333, "y": 0 },
							"t": 14,
							"s": [29, 21, 0],
							"to": [0, 0, 0],
							"ti": [0, 1.167, 0]
						},
						{
							"i": { "x": 0.667, "y": 1 },
							"o": { "x": 0.333, "y": 0 },
							"t": 21,
							"s": [29, 10.063, 0],
							"to": [0, -1.167, 0],
							"ti": [0, -0.656, 0]
						},
						{ "t": 25, "s": [29, 14, 0] }
					],
					"ix": 2
				},
				"a": { "a": 0, "k": [25.25, 8.25, 0], "ix": 1 },
				"s": { "a": 0, "k": [100, 100, 100], "ix": 6 }
			},
			"ao": 0,
			"shapes": [
				{
					"ty": "gr",
					"it": [
						{
							"ind": 0,
							"ty": "sh",
							"ix": 1,
							"ks": {
								"a": 0,
								"k": {
									"i": [
										[0, 0],
										[0, 0],
										[0, 0],
										[0, 0]
									],
									"o": [
										[0, 0],
										[0, 0],
										[0, 0],
										[0, 0]
									],
									"v": [
										[-24, -2],
										[24, -2],
										[24, 2],
										[-24, 2]
									],
									"c": true
								},
								"ix": 2
							},
							"nm": "Path 1",
							"mn": "ADBE Vector Shape - Group",
							"hd": false
						},
						{
							"ty": "fl",
							"c": {
								"a": 0,
								"k": [1, 0.732999973671, 0.866999966491, 1],
								"ix": 4
							},
							"o": { "a": 0, "k": 100, "ix": 5 },
							"r": 1,
							"bm": 0,
							"nm": "Fill 1",
							"mn": "ADBE Vector Graphic - Fill",
							"hd": false
						},
						{
							"ty": "tr",
							"p": { "a": 0, "k": [25.25, 3.25], "ix": 2 },
							"a": { "a": 0, "k": [0, 0], "ix": 1 },
							"s": { "a": 0, "k": [100, 100], "ix": 3 },
							"r": { "a": 0, "k": 0, "ix": 6 },
							"o": { "a": 0, "k": 100, "ix": 7 },
							"sk": { "a": 0, "k": 0, "ix": 4 },
							"sa": { "a": 0, "k": 0, "ix": 5 },
							"nm": "Transform"
						}
					],
					"nm": "Group 1",
					"np": 2,
					"cix": 2,
					"bm": 0,
					"ix": 1,
					"mn": "ADBE Vector Group",
					"hd": false
				},
				{
					"ty": "gr",
					"it": [
						{
							"ind": 0,
							"ty": "sh",
							"ix": 1,
							"ks": {
								"a": 0,
								"k": {
									"i": [
										[0, 0],
										[0.674, 0],
										[0, 0],
										[0, 0.631],
										[0, 0],
										[-0.674, 0],
										[0, 0],
										[0, -0.631]
									],
									"o": [
										[0, 0.631],
										[0, 0],
										[-0.674, 0],
										[0, 0],
										[0, -0.631],
										[0, 0],
										[0.674, 0],
										[0, 0]
									],
									"v": [
										[25, 6.857],
										[23.78, 8],
										[-23.78, 8],
										[-25, 6.857],
										[-25, -6.857],
										[-23.78, -8],
										[23.78, -8],
										[25, -6.857]
									],
									"c": true
								},
								"ix": 2
							},
							"nm": "Path 1",
							"mn": "ADBE Vector Shape - Group",
							"hd": false
						},
						{
							"ty": "fl",
							"c": {
								"a": 0,
								"k": [0.969000004787, 0.630999995213, 0.783999992819, 1],
								"ix": 4
							},
							"o": { "a": 0, "k": 100, "ix": 5 },
							"r": 1,
							"bm": 0,
							"nm": "Fill 1",
							"mn": "ADBE Vector Graphic - Fill",
							"hd": false
						},
						{
							"ty": "tr",
							"p": { "a": 0, "k": [25.25, 8.25], "ix": 2 },
							"a": { "a": 0, "k": [0, 0], "ix": 1 },
							"s": { "a": 0, "k": [100, 100], "ix": 3 },
							"r": { "a": 0, "k": 0, "ix": 6 },
							"o": { "a": 0, "k": 100, "ix": 7 },
							"sk": { "a": 0, "k": 0, "ix": 4 },
							"sa": { "a": 0, "k": 0, "ix": 5 },
							"nm": "Transform"
						}
					],
					"nm": "Group 2",
					"np": 2,
					"cix": 2,
					"bm": 0,
					"ix": 2,
					"mn": "ADBE Vector Group",
					"hd": false
				}
			],
			"ip": 0,
			"op": 28,
			"st": 0,
			"bm": 0
		}
	],
	"markers": []
}
